Homework 6
…
It seems that the number of trees does not seem to affect performance by that much, as long as it is above 100 trees. It also appears that for predictors and minimal node size, the ones in the middle of the ranges that I chose led to slightly better performance

Exercise 7

What is the roc_auc of your best-performing random forest model on the folds? Hint: Use collect_metrics() and arrange().

collect_metrics(rf_res) %>% arrange(desc(mean))

## # A tibble: 512 x 9
##     mtry trees min_n .metric .estimator  mean     n std_err .config             
##    <int> <int> <int> <chr>   <chr>      <dbl> <int>   <dbl> <chr>               
##  1     4   575    10 roc_auc hand_till  0.749     5  0.0126 Preprocessor1_Model~
##  2     3   717     6 roc_auc hand_till  0.748     5  0.0126 Preprocessor1_Model~
##  3     3  1000     4 roc_auc hand_till  0.748     5  0.0157 Preprocessor1_Model~
##  4     4   575     3 roc_auc hand_till  0.748     5  0.0144 Preprocessor1_Model~
##  5     3   292    10 roc_auc hand_till  0.748     5  0.0118 Preprocessor1_Model~
##  6     3   858     7 roc_auc hand_till  0.748     5  0.0136 Preprocessor1_Model~
##  7     2   575     3 roc_auc hand_till  0.747     5  0.0164 Preprocessor1_Model~
##  8     3   717     7 roc_auc hand_till  0.747     5  0.0132 Preprocessor1_Model~
##  9     4   151     8 roc_auc hand_till  0.747     5  0.0144 Preprocessor1_Model~
## 10     3  1000    10 roc_auc hand_till  0.747     5  0.0125 Preprocessor1_Model~
## # ... with 502 more rows
…
